[
{
    "gender": "male",
    "name":
    {
        "title": "Nguyen",
        "first": "Hoang",
        "last": "Trung"
    },
    "location":
    {
        "street": "1861 jan pieterszoon coenstraat",
        "city": "maasdriel",
        "state": "zeeland",
        "postcode": 69217
    },
    "email": "romain.hoogmoed@example.com",
    "dob": "1983-07-14 07:29:45"
},
{
    "gender": "male",
    "name": {
        "title": "Pham",
        "first": "Hai",
        "last": "Anh"
    },
    "location": {
        "street": "7985 disputed rd",
        "city": "belmont",
        "state": "nunavut",
        "postcode": 37717
    },
    "email": "dominic.bouchard@example.com",
    "dob": "1969-05-21 19:12:25"
},
{
    "gender": "female",
    "name": {
        "title": "Nguyen",
        "first": "Van",
        "last": "Anh"
    },
    "location": {
        "street": "2938 lakeview ave",
        "city": "sutton",
        "state": "saskatchewan",
        "postcode": 71700
    },
    "email": "beatrice.andersen@example.com",
    "dob": "1956-10-09 20:04:54"
}
]
